{
    "swagger": "2.0",
    "info": {
      "title": "Pimpster",
      "description": "",
      "version": "0.0.1"
    },
    "produces": [
      "application/json"
    ],
    "paths": {
      "/api/auth/login": {
        "post": {
          "x-swagger-router-controller": "Login",
          "operationId": "index",
          "tags": [
            "Login"
          ],
          "description": "Login to Respective Account.",
          "parameters": [
            {
              "name": "email",
              "in": "formData",
              "type": "string",
              "required": true,
              "collectionFormat": "multi"
            },
            {
              "name": "password",
              "in": "formData",
              "required": true,
              "type": "string"
            }
          ],
          "responses": {
            "200": {
              "description": "Authentication Successfull. A session will be created and sent along with the response",
                "properties": {
                  "statusCode": {
                    "type": "number",
                    "example": 200
                  },
                  "message": {
                    "type": "string",
                    "example": "Login Successfull"
                  }
              }
            },
            "401": {
              "description": "Authentication Failed",
                "properties": {
                  "statusCode": {
                    "type": "number",
                    "value": 401
                  },
                  "message": {
                    "type": "string",
                    "example": "Incorrect  Email or Password"
                  }
              }
            }
          }
        }
      },
      "/api/auth/signup": {
        "post": {
          "x-swagger-router-controller": "Signup",
          "operationId": "index",
          "tags": [
            "Signup"
          ],
          "description": "Customer or Restaurant Signup",
          "parameters": [
            {
              "name": "email",
              "in": "formData",
              "type": "string",
              "required": true,
              "collectionFormat": "multi"
            },
            {
              "name": "phone",
              "in": "formData",
              "type": "number",
              "required": true,
              "collectionFormat": "multi"
            },
            {
              "name": "firstname",
              "in": "formData",
              "type": "string",
              "required": true,
              "collectionFormat": "multi"
            },
            {
              "name": "lastname",
              "in": "formData",
              "type": "string",
              "required": true,
              "collectionFormat": "multi"
            },
            {
              "name": "password",
              "in": "formData",
              "required": true,
              "type": "string"
            },
            {
              "name": "signupType",
              "in": "formData",
              "required": false,
              "default":"customer",
              "type": "string",
              "enum":["customer", "restaurant"],
              "description":"This indicates the type of user. Either customer or restaurant"
            }
          ],
          "responses": {
            "200": {
              "description": "Response on successful registration",
                "properties": {
                  "statusCode": {
                    "type": "number",
                    "example": 200
                    },
                  "error": {
                    "type": "boolean",
                    "example": false
                  },
                  "message": {
                    "type": "string",
                    "example": "User Registered Successfully"
                  }
              }
            },
            "422 ": {
              "description": "Response on Dupicate Email",
                "properties": {
                  "statusCode": {
                    "type": "number",
                    "example": 422
                    },
                  "error": {
                    "type": "boolean",
                    "example": true
                  },
                  "message": {
                    "type": "string",
                    "example": "Email Already Registered"
                  }
              }
            },
            "422": {
              "description": "Response on Dupicate Number",
                "properties": {
                  "statusCode": {
                    "type": "number",
                    "example": 422
                    },
                  "error": {
                    "type": "boolean",
                    "example": true
                  },
                  "message": {
                    "type": "string",
                    "example": "Phone Number Already Registered"
                  }
              }
            }
          }
        }
      }
    }
  }